{
  "$schema": "https://dprint.dev/schemas/v0.json",
  "incremental": true,
  "typescript": {
    "indentWidth": 2,
    "lineWidth": 80,
    "arguments.trailingCommas": "never",
    "parameters.trailingCommas": "never"
  },
  "json": {
    "associations": [
      "**/*.avsc"
    ]
  },
  "markdown": {},
  "toml": {},
  "css": {},
  "dockerfile": {},
  "includes": [
    "**/*.{ts,tsx,js,jsx,cjs,mjs,json,avsc,md,toml,css}",
    "dockerfile"
  ],
  "excludes": ["**/node_modules", "**/*-lock.json", "**/target"],
  "plugins": [
    "https://plugins.dprint.dev/typescript-0.64.0.wasm",
    "https://plugins.dprint.dev/json-0.14.1.wasm",
    "https://plugins.dprint.dev/markdown-0.12.2.wasm",
    "https://plugins.dprint.dev/toml-0.5.4.wasm",
    "https://plugins.dprint.dev/dockerfile-0.2.2.wasm",
    "https://plugins.dprint.dev/disrupted/css-0.1.1.wasm"
  ]
}
